…
``` r
franchise <- runNhlApi(baseURL, endpoints, "franchise")
teamTotals <- runNhlApi(baseURL, endpoints, "teamTotals")
seasonRecordsBlackhawks <- runNhlApi(baseURL, endpoints, "seasonRecords", 11)
goalieRecordsBlackhawks <- runNhlApi(baseURL, endpoints, "goalieRecords", 11)
skaterRecordsBlackhawks <- runNhlApi(baseURL, endpoints, "skaterRecords", 11)
```

A sample of each data frame is shown below:

``` r
franchise
```

    ## # A tibble: 38 x 6
    ##       id firstSeasonId lastSeasonId mostRecentTeamId teamCommonName
    ##    <int>         <int>        <int>            <int> <chr>         
    ##  1     1      19171918           NA                8 Canadiens     
    ##  2     2      19171918     19171918               41 Wanderers     
    ##  3     3      19171918     19341935               45 Eagles        
    ##  4     4      19191920     19241925               37 Tigers        
    ##  5     5      19171918           NA               10 Maple Leafs   
    ##  6     6      19241925           NA                6 Bruins        
    ##  7     7      19241925     19371938               43 Maroons       
    ##  8     8      19251926     19411942               51 Americans     
    ##  9     9      19251926     19301931               39 Quakers       
    ## 10    10      19261927           NA                3 Rangers       
    ## # ... with 28 more rows, and 1 more variable: teamPlaceName <chr>

``` r
teamTotals
```

    ## # A tibble: 104 x 30
    ##       id activeFranchise firstSeasonId franchiseId gameTypeId gamesPlayed
    ##    <int>           <int>         <int>       <int>      <int>       <int>
    ##  1     1               1      19821983          23          2        2937
    ##  2     2               1      19821983          23          3         257
    ##  3     3               1      19721973          22          2        3732
    ##  4     4               1      19721973          22          3         272
    ##  5     5               1      19261927          10          2        6504
    ##  6     6               1      19261927          10          3         515
    ##  7     7               1      19671968          16          3         433
    ##  8     8               1      19671968          16          2        4115
    ##  9     9               1      19671968          17          2        4115
    ## 10    10               1      19671968          17          3         381
    ## # ... with 94 more rows, and 24 more variables: goalsAgainst <int>,
    ## #   goalsFor <int>, homeLosses <int>, homeOvertimeLosses <int>, homeTies <int>,
    ## #   homeWins <int>, lastSeasonId <int>, losses <int>, overtimeLosses <int>,
    ## #   penaltyMinutes <int>, pointPctg <dbl>, points <int>, roadLosses <int>,
    ## #   roadOvertimeLosses <int>, roadTies <int>, roadWins <int>,
    ## #   shootoutLosses <int>, shootoutWins <int>, shutouts <int>, teamId <int>,
    ## #   teamName <chr>, ties <int>, triCode <chr>, wins <int>
…
``` r
goalieRecordsBlackhawks
```

    ## # A tibble: 48 x 29
    ##       id activePlayer firstName franchiseId franchiseName gameTypeId gamesPlayed
    ##    <int> <lgl>        <chr>           <int> <chr>              <int>       <int>
    ##  1   237 FALSE        Tony               11 Chicago Blac~          2         873
    ##  2   318 TRUE         Corey              11 Chicago Blac~          2         488
    ##  3   343 FALSE        Ed                 11 Chicago Blac~          2         415
    ##  4   376 FALSE        Alain              11 Chicago Blac~          2          66
    ##  5   382 FALSE        Jacques            11 Chicago Blac~          2          53
    ##  6   410 FALSE        Mark               11 Chicago Blac~          2          27
    ##  7   439 FALSE        Jeff               11 Chicago Blac~          2         173
    ##  8   499 FALSE        Bob                11 Chicago Blac~          2          41
    ##  9   523 FALSE        Greg               11 Chicago Blac~          2          13
    ## 10   543 FALSE        Paul               11 Chicago Blac~          2          41
    ## # ... with 38 more rows, and 22 more variables: lastName <chr>, losses <int>,
    ## #   mostGoalsAgainstDates <chr>, mostGoalsAgainstOneGame <int>,
    ## #   mostSavesDates <chr>, mostSavesOneGame <int>, mostShotsAgainstDates <chr>,
    ## #   mostShotsAgainstOneGame <int>, mostShutoutsOneSeason <int>,
    ## #   mostShutoutsSeasonIds <chr>, mostWinsOneSeason <int>,
    ## #   mostWinsSeasonIds <chr>, overtimeLosses <int>, playerId <int>,
    ## #   positionCode <chr>, rookieGamesPlayed <int>, rookieShutouts <int>,
    ## #   rookieWins <int>, seasons <int>, shutouts <int>, ties <int>, wins <int>

``` r
skaterRecordsBlackhawks
```

    ## # A tibble: 864 x 30
    ##       id activePlayer assists firstName franchiseId franchiseName gameTypeId
    ##    <int> <lgl>          <int> <chr>           <int> <chr>              <int>
    ##  1 16923 FALSE            926 Stan               11 Chicago Blac~          2
    ##  2 16989 FALSE            549 Bobby              11 Chicago Blac~          2
    ##  3 17016 FALSE            395 Chris              11 Chicago Blac~          2
    ##  4 17079 FALSE            719 Denis              11 Chicago Blac~          2
    ##  5 17109 FALSE              4 Mike               11 Chicago Blac~          2
    ##  6 17160 TRUE             633 Patrick            11 Chicago Blac~          2
    ##  7 17190 FALSE            554 Doug               11 Chicago Blac~          2
    ##  8 17198 FALSE              0 Norm               11 Chicago Blac~          2
    ##  9 17201 FALSE             12 Clarence           11 Chicago Blac~          2
    ## 10 17203 FALSE              4 Sid                11 Chicago Blac~          2
    ## # ... with 854 more rows, and 23 more variables: gamesPlayed <int>,
    ## #   goals <int>, lastName <chr>, mostAssistsGameDates <chr>,
    ## #   mostAssistsOneGame <int>, mostAssistsOneSeason <int>,
    ## #   mostAssistsSeasonIds <chr>, mostGoalsGameDates <chr>,
    ## #   mostGoalsOneGame <int>, mostGoalsOneSeason <int>, mostGoalsSeasonIds <chr>,
    ## #   mostPenaltyMinutesOneSeason <int>, mostPenaltyMinutesSeasonIds <chr>,
    ## #   mostPointsGameDates <chr>, mostPointsOneGame <int>,
    ## #   mostPointsOneSeason <int>, mostPointsSeasonIds <chr>, penaltyMinutes <int>,
    ## #   playerId <int>, points <int>, positionCode <chr>, rookiePoints <int>,
…
